{
	"process_id" : 6480,
	"version" : "2018.3.1f1",
	"app_path" : "C:/Program Files/Unity/Hub/Editor/2018.3.1f1/Editor/Unity.exe",
	"app_contents_path" : "C:/Program Files/Unity/Hub/Editor/2018.3.1f1/Editor/Data"
}